7
 **** S XII fine structure ground state only ****
S XII  upsilions Zhang H.L., Graziani M., Pradhan A.K., (A&A,283,319,1994)
Grd. term Aij from NSRDS-NBS 22, Vol II, 1969. Entered by MJB 12-Feb-1990
        A value for grnd term acc. 10% - NIST database.     CJP 27-6-1996
E levs from NIST. (Martin,W.C., Zalubas,R., & Musgrove,A.,1990.
        J.Phys.Chem.Ref.Data 19,821)                       CJP 27-6-1996

2 32 0
2s22p  2P1/2
2s22p  2P3/2
100
200
300
400
500
600
800
1000
1500
2000
2500
3000
3500
4000
5000
6000
7000
8000
9000
10000
12000
14000
16000
18000
20000
23000
26000
30000
35000
40000
45000
50000
0
   1    2      0.120999999
   0    0      0.193000004
   0    0      0.307000011
   0    0      0.407999992
   0    0      0.486999989
   0    0      0.545000017
   0    0      0.620000005
   0    0      0.662999988
   0    0      0.704999983
   0    0      0.705999970
   0    0      0.688000023
   0    0      0.663999975
   0    0      0.635999978
   0    0      0.607999980
   0    0      0.555999994
   0    0      0.510999978
   0    0      0.472000003
   0    0      0.439000010
   0    0      0.409999996
   0    0      0.384999990
   0    0      0.344999999
   0    0      0.312999994
   0    0      0.287000000
   0    0      0.266000003
   0    0      0.247999996
   0    0      0.225999996
   0    0      0.209000006
   0    0      0.189999998
   0    0      0.172000006
   0    0      0.158000007
   0    0      0.147000000
   0    0      0.136999995
0 0 0
 1 2  21.0
 1 2   0.000000
 2 4   13135.3
